Lab #3: Data Visualization
…
#load('artist_meta.Rdata')
load('~/Downloads/artist_meta.Rdata')
view(artist_meta)

Exercises

1. Using the artist_meta table, create a new factor variable (is_pop) that indicates whether the artist is associated with a pop genre. The labels for this factor variable should be pop and not pop.

artist_meta <- artist_meta %>%
  mutate(is_pop = grepl('pop', genre, fixed=TRUE)) %>%
  mutate(is_pop = ifelse(is_pop, 'pop', 'not pop')) %>%
  mutate(is_pop = as.factor(is_pop))
artist_meta

## # A tibble: 141 x 7
##    artist  wikipedia_link     spotifyID  followers popularity genre       is_pop
##    <chr>   <chr>              <chr>          <int> <list>     <chr>       <fct> 
##  1 Bon Iv https://en.wikipe 4LEiUm1SR   2546477 <int [1]>  chamber po pop   
##  2 Billie https://en.wikipe 6qqNVTkY8  20409690 <int [1]>  electropop pop   
##  3 Ariana https://en.wikipe 66CXWjxzN  42023952 <int [1]>  dance pop, pop   
##  4 H.E.R.  https://en.wikipe 3Y7RZ31TR   2150235 <int [1]>  alternativ pop   
##  5 Khalid  https://en.wikipe 6LuN9FCkK  10408465 <int [1]>  alternativ pop   
##  6 Lil Na https://en.wikipe 7jVv8c5Fj   2456187 <int [1]>  country ra pop   
##  7 Lizzo   https://en.wikipe 56oDRnqbI   2043223 <int [1]>  escape roo pop   
##  8 Post M https://en.wikipe 246dkjvS1  22131044 <int [1]>  dfw rap,me not p
##  9 Lana D https://en.wikipe 00FQb4jTy   9891782 <int [1]>  art pop,pop pop   
## 10 Vampir https://en.wikipe 5BvJzeQpm   1522817 <int [1]>  baroque po pop   
## #  with 131 more rows

Also notice one additional issue with the data that might cause issues later on: the popularity column is an integer list of size one. Consider using the mutate function with the is.numeric function to coerce the data into the type you need (see section 20.4.1 of R for Data Science to learn more).

artist_meta <- artist_meta %>%
  mutate(popularity = as.numeric(popularity))
artist_meta

## # A tibble: 141 x 7
##    artist  wikipedia_link     spotifyID  followers popularity genre       is_pop
##    <chr>   <chr>              <chr>          <int>      <dbl> <chr>       <fct> 
##  1 Bon Iv https://en.wikipe 4LEiUm1SR   2546477         79 chamber po pop   
##  2 Billie https://en.wikipe 6qqNVTkY8  20409690         99 electropop pop   
##  3 Ariana https://en.wikipe 66CXWjxzN  42023952         95 dance pop, pop   
##  4 H.E.R.  https://en.wikipe 3Y7RZ31TR   2150235         83 alternativ pop   
##  5 Khalid  https://en.wikipe 6LuN9FCkK  10408465         96 alternativ pop   
##  6 Lil Na https://en.wikipe 7jVv8c5Fj   2456187         86 country ra pop   
##  7 Lizzo   https://en.wikipe 56oDRnqbI   2043223         87 escape roo pop   
##  8 Post M https://en.wikipe 246dkjvS1  22131044         98 dfw rap,me not p
##  9 Lana D https://en.wikipe 00FQb4jTy   9891782         89 art pop,pop pop   
## 10 Vampir https://en.wikipe 5BvJzeQpm   1522817         76 baroque po pop   
## #  with 131 more rows
…
