Lab #7: Modeling With Statistics
…
Instantiate is_rap variable:

artist_meta <- artist_meta %>%
  mutate(is_rap = grepl('rap', genre, fixed=TRUE)) %>%
  mutate(is_rap = ifelse(is_rap, 'rap', 'not rap')) %>%
  mutate(is_rap = as.factor(is_rap)) 

View new columns:

artist_meta

## # A tibble: 141 x 8
##    artist  wikipedia_link   spotifyID followers popularity genre   is_pop is_rap
##    <chr>   <chr>            <chr>         <int>      <int> <chr>   <fct>  <fct> 
##  1 Bon Iv https://en.wiki 4LEiUm1S   2546477         79 chambe pop    not r
##  2 Billie https://en.wiki 6qqNVTkY  20409690         99 electr pop    not r
##  3 Ariana https://en.wiki 66CXWjxz  42023952         95 dance  pop    not r
##  4 H.E.R.  https://en.wiki 3Y7RZ31T   2150235         83 altern pop    rap   
##  5 Khalid  https://en.wiki 6LuN9FCk  10408465         96 altern pop    not r
##  6 Lil Na https://en.wiki 7jVv8c5F   2456187         86 countr pop    rap   
##  7 Lizzo   https://en.wiki 56oDRnqb   2043223         87 escape pop    rap   
##  8 Post M https://en.wiki 246dkjvS  22131044         98 dfw ra not p rap   
##  9 Lana D https://en.wiki 00FQb4jT   9891782         89 art po pop    not r
## 10 Vampir https://en.wiki 5BvJzeQp   1522817         76 baroqu pop    not r
## #  with 131 more rows
…
